{"failedCount":0,"prefixedPath":"classpath:features\/authtoken.feature","packageQualifiedName":"features.authtoken","loopIndex":-1,"relativePath":"features\/authtoken.feature","scenarioResults":[{"sectionIndex":0,"stepResults":[{"result":{"nanos":30300357,"startTime":1746524580046,"endTime":1746524580076,"millis":30.300357,"status":"passed"},"step":{"line":5,"prefix":"*","index":0,"text":"print tokenID"},"stepLog":"15:13:00.074 [print] Bearer 6d8c762ad7af8ecf5b12abb1e7a345214e822f4cafcfb67d183a21af51163300 \n"},{"result":{"nanos":6276395,"startTime":1746524580084,"endTime":1746524580090,"millis":6.276395,"status":"passed"},"step":{"line":6,"prefix":"Given","index":1,"text":"header Authorization = tokenID"}},{"result":{"nanos":21311341,"startTime":1746524580091,"endTime":1746524580112,"millis":21.311341,"status":"passed"},"step":{"line":7,"prefix":"Given","index":2,"text":"url baseUrl + '\/public\/v1\/users\/'"}},{"result":{"nanos":2972581123,"startTime":1746524580113,"endTime":1746524583086,"millis":2972.581123,"status":"passed"},"step":{"comments":["#And path '7848302'"],"line":9,"prefix":"When","index":3,"text":"method GET"},"stepLog":"15:13:00.803 request:\n1 > GET https:\/\/gorest.co.in\/public\/v1\/users\/\n1 > Authorization: Bearer 6d8c762ad7af8ecf5b12abb1e7a345214e822f4cafcfb67d183a21af51163300\n1 > Host: gorest.co.in\n1 > Connection: Keep-Alive\n1 > User-Agent: Apache-HttpClient\/4.5.14 (Java\/21.0.6)\n1 > Accept-Encoding: gzip,deflate\n\n\n15:13:02.979 response time in milliseconds: 2166\n1 < 200\n1 < Date: Tue, 06 May 2025 09:43:04 GMT\n1 < Content-Type: application\/json; charset=utf-8\n1 < Transfer-Encoding: chunked\n1 < Connection: keep-alive\n1 < Cache-Control: max-age=0, private, must-revalidate\n1 < Etag: W\/\"97fb9c7056374c84ce2a37f17195176a\"\n1 < Feature-Policy: camera 'none'; gyroscope 'none'; microphone 'none'; usb 'none'; fullscreen 'self'\n1 < Referrer-Policy: strict-origin-when-cross-origin\n1 < Vary: Origin\n1 < X-Content-Type-Options: nosniff\n1 < X-Download-Options: noopen\n1 < X-Frame-Options: SAMEORIGIN\n1 < X-Permitted-Cross-Domain-Policies: none\n1 < X-Ratelimit-Limit: 90\n1 < X-Ratelimit-Remaining: 89\n1 < X-Ratelimit-Reset: 1\n1 < X-Request-Id: 474d1576-4018-4d29-a4e5-3f42dbd0656f\n1 < X-Runtime: 0.081512\n1 < X-Xss-Protection: 0\n1 < Cf-Cache-Status: DYNAMIC\n1 < Server: cloudflare\n1 < CF-RAY: 93b787f7cff379ad-LHR\n1 < alt-svc: h3=\":443\"; ma=86400\n{\"meta\":{\"pagination\":{\"total\":2716,\"pages\":272,\"page\":1,\"limit\":10,\"links\":{\"previous\":null,\"current\":\"https:\/\/gorest.co.in\/public\/v1\/users?page=1\",\"next\":\"https:\/\/gorest.co.in\/public\/v1\/users?page=2\"}}},\"data\":[{\"id\":7868940,\"name\":\"tom1\",\"email\":\"zawyd6cw@gmail.com\",\"gender\":\"female\",\"status\":\"inactive\"},{\"id\":7868939,\"name\":\"tom1\",\"email\":\"bramfgov@gmail.com\",\"gender\":\"male\",\"status\":\"active\"},{\"id\":7868938,\"name\":\"tom1\",\"email\":\"tom3@gmail.com\",\"gender\":\"male\",\"status\":\"active\"},{\"id\":7866605,\"name\":\"tom1\",\"email\":\"ubnm29w0@gmail.com\",\"gender\":\"female\",\"status\":\"inactive\"},{\"id\":7831900,\"name\":\"Jagathi Marar\",\"email\":\"jagathi_marar@corkery.example\",\"gender\":\"male\",\"status\":\"inactive\"},{\"id\":7831898,\"name\":\"Avadhesh Jain II\",\"email\":\"avadhesh_jain_ii@lesch.example\",\"gender\":\"female\",\"status\":\"inactive\"},{\"id\":7831897,\"name\":\"Yogendra Malik\",\"email\":\"malik_yogendra@bergnaum-dooley.test\",\"gender\":\"male\",\"status\":\"inactive\"},{\"id\":7831896,\"name\":\"Shobhana Banerjee\",\"email\":\"banerjee_shobhana@kub.example\",\"gender\":\"female\",\"status\":\"active\"},{\"id\":7831893,\"name\":\"Msgr. Deeptiman Panicker\",\"email\":\"panicker_msgr_deeptiman@gerhold.test\",\"gender\":\"male\",\"status\":\"active\"},{\"id\":7831892,\"name\":\"Prof. Acaryatanaya Jha\",\"email\":\"acaryatanaya_jha_prof@runolfsson.example\",\"gender\":\"male\",\"status\":\"active\"}]}\n\n"},{"result":{"nanos":9529770,"startTime":1746524583086,"endTime":1746524583096,"millis":9.52977,"status":"passed"},"step":{"line":10,"prefix":"Then","index":4,"text":"status 200"}},{"result":{"nanos":14311930,"startTime":1746524583095,"endTime":1746524583109,"millis":14.31193,"status":"passed"},"step":{"line":11,"prefix":"*","index":5,"text":"print response"},"stepLog":"15:13:03.109 [print] {\n  \"meta\": {\n    \"pagination\": {\n      \"total\": 2716,\n      \"pages\": 272,\n      \"page\": 1,\n      \"limit\": 10,\n      \"links\": {\n        \"previous\": null,\n        \"current\": \"https:\/\/gorest.co.in\/public\/v1\/users?page=1\",\n        \"next\": \"https:\/\/gorest.co.in\/public\/v1\/users?page=2\"\n      }\n    }\n  },\n  \"data\": [\n    {\n      \"id\": 7868940,\n      \"name\": \"tom1\",\n      \"email\": \"zawyd6cw@gmail.com\",\n      \"gender\": \"female\",\n      \"status\": \"inactive\"\n    },\n    {\n      \"id\": 7868939,\n      \"name\": \"tom1\",\n      \"email\": \"bramfgov@gmail.com\",\n      \"gender\": \"male\",\n      \"status\": \"active\"\n    },\n    {\n      \"id\": 7868938,\n      \"name\": \"tom1\",\n      \"email\": \"tom3@gmail.com\",\n      \"gender\": \"male\",\n      \"status\": \"active\"\n    },\n    {\n      \"id\": 7866605,\n      \"name\": \"tom1\",\n      \"email\": \"ubnm29w0@gmail.com\",\n      \"gender\": \"female\",\n      \"status\": \"inactive\"\n    },\n    {\n      \"id\": 7831900,\n      \"name\": \"Jagathi Marar\",\n      \"email\": \"jagathi_marar@corkery.example\",\n      \"gender\": \"male\",\n      \"status\": \"inactive\"\n    },\n    {\n      \"id\": 7831898,\n      \"name\": \"Avadhesh Jain II\",\n      \"email\": \"avadhesh_jain_ii@lesch.example\",\n      \"gender\": \"female\",\n      \"status\": \"inactive\"\n    },\n    {\n      \"id\": 7831897,\n      \"name\": \"Yogendra Malik\",\n      \"email\": \"malik_yogendra@bergnaum-dooley.test\",\n      \"gender\": \"male\",\n      \"status\": \"inactive\"\n    },\n    {\n      \"id\": 7831896,\n      \"name\": \"Shobhana Banerjee\",\n      \"email\": \"banerjee_shobhana@kub.example\",\n      \"gender\": \"female\",\n      \"status\": \"active\"\n    },\n    {\n      \"id\": 7831893,\n      \"name\": \"Msgr. Deeptiman Panicker\",\n      \"email\": \"panicker_msgr_deeptiman@gerhold.test\",\n      \"gender\": \"male\",\n      \"status\": \"active\"\n    },\n    {\n      \"id\": 7831892,\n      \"name\": \"Prof. Acaryatanaya Jha\",\n      \"email\": \"acaryatanaya_jha_prof@runolfsson.example\",\n      \"gender\": \"male\",\n      \"status\": \"active\"\n    }\n  ]\n}\n \n"}],"executorName":"main","line":3,"name":"authtoken","description":"","durationMillis":3054.310916,"startTime":1746524579416,"failed":false,"refId":"[1:3]","endTime":1746524583110,"exampleIndex":-1}],"callDepth":0,"name":"get api using  auth token","description":"","resultDate":"2025-05-06 03:13:03 PM","durationMillis":3054.310916,"passedCount":1}