{"failedCount":0,"prefixedPath":"classpath:features\/getapiwith_queryparam.feature","packageQualifiedName":"features.getapiwith_queryparam","loopIndex":-1,"relativePath":"features\/getapiwith_queryparam.feature","scenarioResults":[{"sectionIndex":0,"stepResults":[{"result":{"nanos":792409,"startTime":1746187901333,"endTime":1746187901334,"millis":0.792409,"status":"passed"},"step":{"line":4,"prefix":"*","index":0,"text":"def query = {status : 'inactive',gender : 'female', id : 7848299}"}},{"result":{"nanos":1860500,"startTime":1746187901334,"endTime":1746187901336,"millis":1.8605,"status":"passed"},"step":{"line":5,"prefix":"Given","index":1,"text":"url baseUrl + '\/public\/v1\/users\/'"}},{"result":{"nanos":3156162,"startTime":1746187901336,"endTime":1746187901339,"millis":3.156162,"status":"passed"},"step":{"line":6,"prefix":"And","index":2,"text":"params query"}},{"result":{"nanos":1145652662,"startTime":1746187901339,"endTime":1746187902485,"millis":1145.652662,"status":"passed"},"step":{"line":7,"prefix":"When","index":3,"text":"method GET"},"stepLog":"17:41:41.344 request:\n1 > GET https:\/\/gorest.co.in\/public\/v1\/users\/?gender=female&id=7848299&status=inactive\n1 > Host: gorest.co.in\n1 > Connection: Keep-Alive\n1 > User-Agent: Apache-HttpClient\/4.5.14 (Java\/21.0.6)\n1 > Accept-Encoding: gzip,deflate\n\n\n17:41:42.481 response time in milliseconds: 1133\n1 < 200\n1 < Date: Fri, 02 May 2025 12:11:42 GMT\n1 < Content-Type: application\/json; charset=utf-8\n1 < Transfer-Encoding: chunked\n1 < Connection: keep-alive\n1 < Cache-Control: max-age=0, private, must-revalidate\n1 < Etag: W\/\"7d0fad3944b5884d753950e7824069d3\"\n1 < Feature-Policy: camera 'none'; gyroscope 'none'; microphone 'none'; usb 'none'; fullscreen 'self'\n1 < Referrer-Policy: strict-origin-when-cross-origin\n1 < Vary: Origin\n1 < X-Content-Type-Options: nosniff\n1 < X-Download-Options: noopen\n1 < X-Frame-Options: SAMEORIGIN\n1 < X-Permitted-Cross-Domain-Policies: none\n1 < X-Request-Id: 42e67c42-9d2c-4133-8c89-05c922b0539a\n1 < X-Runtime: 0.035141\n1 < X-Xss-Protection: 0\n1 < Cf-Cache-Status: DYNAMIC\n1 < Server: cloudflare\n1 < CF-RAY: 93976c329b85e57b-LHR\n1 < alt-svc: h3=\":443\"; ma=86400\n{\"meta\":{\"pagination\":{\"total\":0,\"pages\":0,\"page\":1,\"limit\":10,\"links\":{\"previous\":null,\"current\":null,\"next\":null}}},\"data\":[]}\n\n"},{"result":{"nanos":39094,"startTime":1746187902485,"endTime":1746187902485,"millis":0.039094,"status":"passed"},"step":{"line":8,"prefix":"Then","index":4,"text":"status 200"}},{"result":{"nanos":2658802,"startTime":1746187902485,"endTime":1746187902488,"millis":2.658802,"status":"passed"},"step":{"line":9,"prefix":"*","index":5,"text":"print response"},"stepLog":"17:41:42.487 [print] {\n  \"meta\": {\n    \"pagination\": {\n      \"total\": 0,\n      \"pages\": 0,\n      \"page\": 1,\n      \"limit\": 10,\n      \"links\": {\n        \"previous\": null,\n        \"current\": null,\n        \"next\": null\n      }\n    }\n  },\n  \"data\": [\n  ]\n}\n \n"}],"executorName":"main","line":3,"name":"get all active users","description":"","durationMillis":1154.159629,"startTime":1746187901329,"failed":false,"refId":"[1:3]","endTime":1746187902488,"exampleIndex":-1},{"sectionIndex":1,"stepResults":[{"result":{"nanos":689571,"startTime":1746187902508,"endTime":1746187902509,"millis":0.689571,"status":"passed"},"step":{"line":13,"prefix":"*","index":0,"text":"def query = {status : 'active'}"}},{"result":{"nanos":433262,"startTime":1746187902509,"endTime":1746187902509,"millis":0.433262,"status":"passed"},"step":{"line":14,"prefix":"Given","index":1,"text":"url baseUrl + '\/public\/v1\/users\/'"}},{"result":{"nanos":475043,"startTime":1746187902509,"endTime":1746187902509,"millis":0.475043,"status":"passed"},"step":{"line":15,"prefix":"And","index":2,"text":"params query"}},{"result":{"nanos":1102205361,"startTime":1746187902510,"endTime":1746187903612,"millis":1102.205361,"status":"passed"},"step":{"line":16,"prefix":"When","index":3,"text":"method GET"},"stepLog":"17:41:42.513 request:\n1 > GET https:\/\/gorest.co.in\/public\/v1\/users\/?status=active\n1 > Host: gorest.co.in\n1 > Connection: Keep-Alive\n1 > User-Agent: Apache-HttpClient\/4.5.14 (Java\/21.0.6)\n1 > Accept-Encoding: gzip,deflate\n\n\n17:41:43.609 response time in milliseconds: 1095\n1 < 200\n1 < Date: Fri, 02 May 2025 12:11:43 GMT\n1 < Content-Type: application\/json; charset=utf-8\n1 < Transfer-Encoding: chunked\n1 < Connection: keep-alive\n1 < Cache-Control: max-age=0, private, must-revalidate\n1 < Etag: W\/\"2d036f6a30e5a8974b2b01851ec6977f\"\n1 < Feature-Policy: camera 'none'; gyroscope 'none'; microphone 'none'; usb 'none'; fullscreen 'self'\n1 < Referrer-Policy: strict-origin-when-cross-origin\n1 < Vary: Origin\n1 < X-Content-Type-Options: nosniff\n1 < X-Download-Options: noopen\n1 < X-Frame-Options: SAMEORIGIN\n1 < X-Permitted-Cross-Domain-Policies: none\n1 < X-Request-Id: cb1badfc-0d54-41e2-963f-0defc931f2e0\n1 < X-Runtime: 0.033388\n1 < X-Xss-Protection: 0\n1 < Cf-Cache-Status: DYNAMIC\n1 < Server: cloudflare\n1 < CF-RAY: 93976c399ed66397-LHR\n1 < alt-svc: h3=\":443\"; ma=86400\n{\"meta\":{\"pagination\":{\"total\":1453,\"pages\":146,\"page\":1,\"limit\":10,\"links\":{\"previous\":null,\"current\":\"https:\/\/gorest.co.in\/public\/v1\/users?page=1\",\"next\":\"https:\/\/gorest.co.in\/public\/v1\/users?page=2\"}}},\"data\":[{\"id\":7868039,\"name\":\"Mrs. Sarada Kaul\",\"email\":\"mrs_sarada_kaul@donnelly-koss.test\",\"gender\":\"male\",\"status\":\"active\"},{\"id\":7868033,\"name\":\"Ms. Anila Trivedi\",\"email\":\"trivedi_anila_ms@brakus-harvey.example\",\"gender\":\"female\",\"status\":\"active\"},{\"id\":7868027,\"name\":\"Shreyashi Pillai\",\"email\":\"shreyashi_pillai@schinner-hauck.example\",\"gender\":\"female\",\"status\":\"active\"},{\"id\":7868022,\"name\":\"Lavanya Ganaka\",\"email\":\"ganaka_lavanya@friesen.test\",\"gender\":\"female\",\"status\":\"active\"},{\"id\":7868020,\"name\":\"Bhamini Varman\",\"email\":\"varman_bhamini@witting.example\",\"gender\":\"female\",\"status\":\"active\"},{\"id\":7866743,\"name\":\"Indra Varman\",\"email\":\"varman_indra@rodriguez.test\",\"gender\":\"female\",\"status\":\"active\"},{\"id\":7866739,\"name\":\"Devesh Johar\",\"email\":\"johar_devesh@von.test\",\"gender\":\"female\",\"status\":\"active\"},{\"id\":7866738,\"name\":\"Gurdev Ahluwalia\",\"email\":\"gurdev_ahluwalia@mcdermott.example\",\"gender\":\"male\",\"status\":\"active\"},{\"id\":7866737,\"name\":\"Mr. Dhara Varman\",\"email\":\"dhara_mr_varman@carroll-wilderman.test\",\"gender\":\"female\",\"status\":\"active\"},{\"id\":7866736,\"name\":\"Deeptimoyee Kaur\",\"email\":\"kaur_deeptimoyee@collins-pfeffer.example\",\"gender\":\"male\",\"status\":\"active\"}]}\n\n"},{"result":{"nanos":36817,"startTime":1746187903612,"endTime":1746187903612,"millis":0.036817,"status":"passed"},"step":{"line":17,"prefix":"Then","index":4,"text":"status 200"}},{"result":{"nanos":1477034,"startTime":1746187903613,"endTime":1746187903614,"millis":1.477034,"status":"passed"},"step":{"line":18,"prefix":"*","index":5,"text":"print response"},"stepLog":"17:41:43.614 [print] {\n  \"meta\": {\n    \"pagination\": {\n      \"total\": 1453,\n      \"pages\": 146,\n      \"page\": 1,\n      \"limit\": 10,\n      \"links\": {\n        \"previous\": null,\n        \"current\": \"https:\/\/gorest.co.in\/public\/v1\/users?page=1\",\n        \"next\": \"https:\/\/gorest.co.in\/public\/v1\/users?page=2\"\n      }\n    }\n  },\n  \"data\": [\n    {\n      \"id\": 7868039,\n      \"name\": \"Mrs. Sarada Kaul\",\n      \"email\": \"mrs_sarada_kaul@donnelly-koss.test\",\n      \"gender\": \"male\",\n      \"status\": \"active\"\n    },\n    {\n      \"id\": 7868033,\n      \"name\": \"Ms. Anila Trivedi\",\n      \"email\": \"trivedi_anila_ms@brakus-harvey.example\",\n      \"gender\": \"female\",\n      \"status\": \"active\"\n    },\n    {\n      \"id\": 7868027,\n      \"name\": \"Shreyashi Pillai\",\n      \"email\": \"shreyashi_pillai@schinner-hauck.example\",\n      \"gender\": \"female\",\n      \"status\": \"active\"\n    },\n    {\n      \"id\": 7868022,\n      \"name\": \"Lavanya Ganaka\",\n      \"email\": \"ganaka_lavanya@friesen.test\",\n      \"gender\": \"female\",\n      \"status\": \"active\"\n    },\n    {\n      \"id\": 7868020,\n      \"name\": \"Bhamini Varman\",\n      \"email\": \"varman_bhamini@witting.example\",\n      \"gender\": \"female\",\n      \"status\": \"active\"\n    },\n    {\n      \"id\": 7866743,\n      \"name\": \"Indra Varman\",\n      \"email\": \"varman_indra@rodriguez.test\",\n      \"gender\": \"female\",\n      \"status\": \"active\"\n    },\n    {\n      \"id\": 7866739,\n      \"name\": \"Devesh Johar\",\n      \"email\": \"johar_devesh@von.test\",\n      \"gender\": \"female\",\n      \"status\": \"active\"\n    },\n    {\n      \"id\": 7866738,\n      \"name\": \"Gurdev Ahluwalia\",\n      \"email\": \"gurdev_ahluwalia@mcdermott.example\",\n      \"gender\": \"male\",\n      \"status\": \"active\"\n    },\n    {\n      \"id\": 7866737,\n      \"name\": \"Mr. Dhara Varman\",\n      \"email\": \"dhara_mr_varman@carroll-wilderman.test\",\n      \"gender\": \"female\",\n      \"status\": \"active\"\n    },\n    {\n      \"id\": 7866736,\n      \"name\": \"Deeptimoyee Kaur\",\n      \"email\": \"kaur_deeptimoyee@collins-pfeffer.example\",\n      \"gender\": \"male\",\n      \"status\": \"active\"\n    }\n  ]\n}\n \n"},{"result":{"nanos":2322875,"startTime":1746187903614,"endTime":1746187903616,"millis":2.322875,"status":"passed"},"step":{"line":19,"prefix":"*","index":6,"text":"def count = response.data.length"}},{"result":{"nanos":2301516,"startTime":1746187903617,"endTime":1746187903619,"millis":2.301516,"status":"passed"},"step":{"line":20,"prefix":"*","index":7,"text":"print count"},"stepLog":"17:41:43.619 [print] 10 \n"},{"result":{"nanos":504709715,"startTime":1746187903619,"endTime":1746187904124,"millis":504.709715,"status":"passed"},"step":{"line":21,"prefix":"*","index":8,"text":"match count == 10"}}],"executorName":"main","line":12,"name":"get all active users and get the count","description":"","durationMillis":1614.651194,"startTime":1746187902505,"failed":false,"refId":"[2:12]","endTime":1746187904124,"exampleIndex":-1}],"callDepth":0,"name":"getApi with query parameter","description":"","resultDate":"2025-05-02 05:41:44 PM","durationMillis":2768.810823,"passedCount":2}