{"failedCount":0,"prefixedPath":"classpath:features\/headers.feature","packageQualifiedName":"features.headers","loopIndex":-1,"relativePath":"features\/headers.feature","scenarioResults":[{"sectionIndex":0,"stepResults":[{"result":{"nanos":1138394,"startTime":1746187904380,"endTime":1746187904381,"millis":1.138394,"status":"passed"},"step":{"line":4,"prefix":"Given","index":0,"text":"header Content-Type = 'text\/xml;charset=ISO-8859-1'"}},{"result":{"nanos":903297,"startTime":1746187904382,"endTime":1746187904383,"millis":0.903297,"status":"passed"},"step":{"line":5,"prefix":"And","index":1,"text":"header Accept-Encoding = 'gzip,deflate'"}},{"result":{"nanos":962587,"startTime":1746187904383,"endTime":1746187904384,"millis":0.962587,"status":"passed"},"step":{"line":6,"prefix":"And","index":2,"text":"header Connection = 'Keep-Alive'"}},{"result":{"nanos":1383690,"startTime":1746187904384,"endTime":1746187904385,"millis":1.38369,"status":"passed"},"step":{"line":7,"prefix":"And","index":3,"text":"header Expect = '100-continue'"}},{"result":{"nanos":1142951,"startTime":1746187904386,"endTime":1746187904387,"millis":1.142951,"status":"passed"},"step":{"line":8,"prefix":"And","index":4,"text":"header User-Agent = 'Mozilla\/4.0(compatible;IE;GACv7\\. 1\\. 5192\\. 22378)'"}},{"result":{"nanos":1531000,"startTime":1746187904387,"endTime":1746187904389,"millis":1.531,"status":"passed"},"step":{"comments":["#And header Authorization = 'Bearer 007526d9efdbc07e084ff7a6d4cfcc90588fbe20641c00faebf45a7f3b2eaf33'"],"line":11,"prefix":"When","index":5,"text":"url baseUrl+'\/public\/v1\/users'"}},{"result":{"nanos":1279447623,"startTime":1746187904389,"endTime":1746187905668,"millis":1279.447623,"status":"passed"},"step":{"comments":["#And path '30'"],"line":13,"prefix":"When","index":6,"text":"method GET"},"stepLog":"17:41:44.391 request:\n1 > GET https:\/\/gorest.co.in\/public\/v1\/users\n1 > Content-Type: text\/xml;charset=ISO-8859-1\n1 > Accept-Encoding: gzip,deflate\n1 > Connection: Keep-Alive\n1 > Expect: 100-continue\n1 > User-Agent: Mozilla\/4.0(compatible;IE;GACv7. 1. 5192. 22378)\n1 > Host: gorest.co.in\n\n\n17:41:45.666 response time in milliseconds: 1272\n1 < 200\n1 < Date: Fri, 02 May 2025 12:11:45 GMT\n1 < Content-Type: application\/json; charset=utf-8\n1 < Transfer-Encoding: chunked\n1 < Connection: keep-alive\n1 < Cache-Control: max-age=0, private, must-revalidate\n1 < Etag: W\/\"f071a5dacb26ea86cb8ead088b07164b\"\n1 < Feature-Policy: camera 'none'; gyroscope 'none'; microphone 'none'; usb 'none'; fullscreen 'self'\n1 < Referrer-Policy: strict-origin-when-cross-origin\n1 < Vary: Origin\n1 < X-Content-Type-Options: nosniff\n1 < X-Download-Options: noopen\n1 < X-Frame-Options: SAMEORIGIN\n1 < X-Permitted-Cross-Domain-Policies: none\n1 < X-Request-Id: 9e85dff0-d364-426c-9ab5-025235f82452\n1 < X-Runtime: 0.036933\n1 < X-Xss-Protection: 0\n1 < Cf-Cache-Status: DYNAMIC\n1 < Server: cloudflare\n1 < CF-RAY: 93976c460f01789f-LHR\n1 < alt-svc: h3=\":443\"; ma=86400\n{\"meta\":{\"pagination\":{\"total\":2934,\"pages\":294,\"page\":1,\"limit\":10,\"links\":{\"previous\":null,\"current\":\"https:\/\/gorest.co.in\/public\/v1\/users?page=1\",\"next\":\"https:\/\/gorest.co.in\/public\/v1\/users?page=2\"}}},\"data\":[{\"id\":7868039,\"name\":\"Mrs. Sarada Kaul\",\"email\":\"mrs_sarada_kaul@donnelly-koss.test\",\"gender\":\"male\",\"status\":\"active\"},{\"id\":7868033,\"name\":\"Ms. Anila Trivedi\",\"email\":\"trivedi_anila_ms@brakus-harvey.example\",\"gender\":\"female\",\"status\":\"active\"},{\"id\":7868031,\"name\":\"Mr. Vedanga Gandhi\",\"email\":\"gandhi_mr_vedanga@rohan.test\",\"gender\":\"female\",\"status\":\"inactive\"},{\"id\":7868030,\"name\":\"Indra Kakkar\",\"email\":\"indra_kakkar@schinner-smitham.example\",\"gender\":\"male\",\"status\":\"inactive\"},{\"id\":7868029,\"name\":\"Shubhaprada Trivedi\",\"email\":\"shubhaprada_trivedi@kreiger-baumbach.test\",\"gender\":\"female\",\"status\":\"inactive\"},{\"id\":7868028,\"name\":\"Gov. Gautama Varrier\",\"email\":\"varrier_gov_gautama@cartwright-lynch.example\",\"gender\":\"female\",\"status\":\"inactive\"},{\"id\":7868027,\"name\":\"Shreyashi Pillai\",\"email\":\"shreyashi_pillai@schinner-hauck.example\",\"gender\":\"female\",\"status\":\"active\"},{\"id\":7868023,\"name\":\"Amrit Iyengar IV\",\"email\":\"iv_iyengar_amrit@borer.test\",\"gender\":\"male\",\"status\":\"inactive\"},{\"id\":7868022,\"name\":\"Lavanya Ganaka\",\"email\":\"ganaka_lavanya@friesen.test\",\"gender\":\"female\",\"status\":\"active\"},{\"id\":7868021,\"name\":\"Amb. Baidehi Chaturvedi\",\"email\":\"chaturvedi_amb_baidehi@dicki.test\",\"gender\":\"female\",\"status\":\"inactive\"}]}\n\n"},{"result":{"nanos":39944,"startTime":1746187905668,"endTime":1746187905668,"millis":0.039944,"status":"passed"},"step":{"line":14,"prefix":"Then","index":7,"text":"status 200"}},{"result":{"nanos":2040891,"startTime":1746187905669,"endTime":1746187905671,"millis":2.040891,"status":"passed"},"step":{"line":15,"prefix":"*","index":8,"text":"print response"},"stepLog":"17:41:45.670 [print] {\n  \"meta\": {\n    \"pagination\": {\n      \"total\": 2934,\n      \"pages\": 294,\n      \"page\": 1,\n      \"limit\": 10,\n      \"links\": {\n        \"previous\": null,\n        \"current\": \"https:\/\/gorest.co.in\/public\/v1\/users?page=1\",\n        \"next\": \"https:\/\/gorest.co.in\/public\/v1\/users?page=2\"\n      }\n    }\n  },\n  \"data\": [\n    {\n      \"id\": 7868039,\n      \"name\": \"Mrs. Sarada Kaul\",\n      \"email\": \"mrs_sarada_kaul@donnelly-koss.test\",\n      \"gender\": \"male\",\n      \"status\": \"active\"\n    },\n    {\n      \"id\": 7868033,\n      \"name\": \"Ms. Anila Trivedi\",\n      \"email\": \"trivedi_anila_ms@brakus-harvey.example\",\n      \"gender\": \"female\",\n      \"status\": \"active\"\n    },\n    {\n      \"id\": 7868031,\n      \"name\": \"Mr. Vedanga Gandhi\",\n      \"email\": \"gandhi_mr_vedanga@rohan.test\",\n      \"gender\": \"female\",\n      \"status\": \"inactive\"\n    },\n    {\n      \"id\": 7868030,\n      \"name\": \"Indra Kakkar\",\n      \"email\": \"indra_kakkar@schinner-smitham.example\",\n      \"gender\": \"male\",\n      \"status\": \"inactive\"\n    },\n    {\n      \"id\": 7868029,\n      \"name\": \"Shubhaprada Trivedi\",\n      \"email\": \"shubhaprada_trivedi@kreiger-baumbach.test\",\n      \"gender\": \"female\",\n      \"status\": \"inactive\"\n    },\n    {\n      \"id\": 7868028,\n      \"name\": \"Gov. Gautama Varrier\",\n      \"email\": \"varrier_gov_gautama@cartwright-lynch.example\",\n      \"gender\": \"female\",\n      \"status\": \"inactive\"\n    },\n    {\n      \"id\": 7868027,\n      \"name\": \"Shreyashi Pillai\",\n      \"email\": \"shreyashi_pillai@schinner-hauck.example\",\n      \"gender\": \"female\",\n      \"status\": \"active\"\n    },\n    {\n      \"id\": 7868023,\n      \"name\": \"Amrit Iyengar IV\",\n      \"email\": \"iv_iyengar_amrit@borer.test\",\n      \"gender\": \"male\",\n      \"status\": \"inactive\"\n    },\n    {\n      \"id\": 7868022,\n      \"name\": \"Lavanya Ganaka\",\n      \"email\": \"ganaka_lavanya@friesen.test\",\n      \"gender\": \"female\",\n      \"status\": \"active\"\n    },\n    {\n      \"id\": 7868021,\n      \"name\": \"Amb. Baidehi Chaturvedi\",\n      \"email\": \"chaturvedi_amb_baidehi@dicki.test\",\n      \"gender\": \"female\",\n      \"status\": \"inactive\"\n    }\n  ]\n}\n \n"}],"executorName":"main","line":3,"name":"pass the user request with headers_Part1","description":"","durationMillis":1288.590377,"startTime":1746187904378,"failed":false,"refId":"[1:3]","endTime":1746187905671,"exampleIndex":-1},{"sectionIndex":1,"stepResults":[{"result":{"nanos":1044877,"startTime":1746187905686,"endTime":1746187905687,"millis":1.044877,"status":"passed"},"step":{"line":18,"prefix":"*","index":0,"text":"def request_headers = {Content-Type: 'text\/xml;charset=ISO-8859-1', Connection: 'Keep-Alive', User-Agent: 'Mozilla\/4.0(compatible;IE;GACv7\\. 1\\. 5192\\. 22378)'}"}},{"result":{"nanos":1505753,"startTime":1746187905687,"endTime":1746187905689,"millis":1.505753,"status":"passed"},"step":{"line":19,"prefix":"Given","index":1,"text":"headers request_headers"}},{"result":{"nanos":478510,"startTime":1746187905688,"endTime":1746187905688,"millis":0.47851,"status":"passed"},"step":{"line":20,"prefix":"When","index":2,"text":"url baseUrl+'\/public\/v1\/users'"}},{"result":{"nanos":791166130,"startTime":1746187905689,"endTime":1746187906480,"millis":791.16613,"status":"passed"},"step":{"comments":["#And path '30'"],"line":22,"prefix":"When","index":3,"text":"method GET"},"stepLog":"17:41:45.692 request:\n1 > GET https:\/\/gorest.co.in\/public\/v1\/users\n1 > Content-Type: text\/xml;charset=ISO-8859-1\n1 > Connection: Keep-Alive\n1 > User-Agent: Mozilla\/4.0(compatible;IE;GACv7 1 5192 22378)\n1 > Host: gorest.co.in\n1 > Accept-Encoding: gzip,deflate\n\n\n17:41:46.477 response time in milliseconds: 784\n1 < 200\n1 < Date: Fri, 02 May 2025 12:11:46 GMT\n1 < Content-Type: application\/json; charset=utf-8\n1 < Transfer-Encoding: chunked\n1 < Connection: keep-alive\n1 < Cache-Control: max-age=0, private, must-revalidate\n1 < Etag: W\/\"f071a5dacb26ea86cb8ead088b07164b\"\n1 < Feature-Policy: camera 'none'; gyroscope 'none'; microphone 'none'; usb 'none'; fullscreen 'self'\n1 < Referrer-Policy: strict-origin-when-cross-origin\n1 < Vary: Origin\n1 < X-Content-Type-Options: nosniff\n1 < X-Download-Options: noopen\n1 < X-Frame-Options: SAMEORIGIN\n1 < X-Permitted-Cross-Domain-Policies: none\n1 < X-Request-Id: db7942e1-69ee-4533-af92-d5a8a14dac1e\n1 < X-Runtime: 0.043750\n1 < X-Xss-Protection: 0\n1 < Cf-Cache-Status: DYNAMIC\n1 < Server: cloudflare\n1 < CF-RAY: 93976c4d793993d6-LHR\n1 < alt-svc: h3=\":443\"; ma=86400\n{\"meta\":{\"pagination\":{\"total\":2934,\"pages\":294,\"page\":1,\"limit\":10,\"links\":{\"previous\":null,\"current\":\"https:\/\/gorest.co.in\/public\/v1\/users?page=1\",\"next\":\"https:\/\/gorest.co.in\/public\/v1\/users?page=2\"}}},\"data\":[{\"id\":7868039,\"name\":\"Mrs. Sarada Kaul\",\"email\":\"mrs_sarada_kaul@donnelly-koss.test\",\"gender\":\"male\",\"status\":\"active\"},{\"id\":7868033,\"name\":\"Ms. Anila Trivedi\",\"email\":\"trivedi_anila_ms@brakus-harvey.example\",\"gender\":\"female\",\"status\":\"active\"},{\"id\":7868031,\"name\":\"Mr. Vedanga Gandhi\",\"email\":\"gandhi_mr_vedanga@rohan.test\",\"gender\":\"female\",\"status\":\"inactive\"},{\"id\":7868030,\"name\":\"Indra Kakkar\",\"email\":\"indra_kakkar@schinner-smitham.example\",\"gender\":\"male\",\"status\":\"inactive\"},{\"id\":7868029,\"name\":\"Shubhaprada Trivedi\",\"email\":\"shubhaprada_trivedi@kreiger-baumbach.test\",\"gender\":\"female\",\"status\":\"inactive\"},{\"id\":7868028,\"name\":\"Gov. Gautama Varrier\",\"email\":\"varrier_gov_gautama@cartwright-lynch.example\",\"gender\":\"female\",\"status\":\"inactive\"},{\"id\":7868027,\"name\":\"Shreyashi Pillai\",\"email\":\"shreyashi_pillai@schinner-hauck.example\",\"gender\":\"female\",\"status\":\"active\"},{\"id\":7868023,\"name\":\"Amrit Iyengar IV\",\"email\":\"iv_iyengar_amrit@borer.test\",\"gender\":\"male\",\"status\":\"inactive\"},{\"id\":7868022,\"name\":\"Lavanya Ganaka\",\"email\":\"ganaka_lavanya@friesen.test\",\"gender\":\"female\",\"status\":\"active\"},{\"id\":7868021,\"name\":\"Amb. Baidehi Chaturvedi\",\"email\":\"chaturvedi_amb_baidehi@dicki.test\",\"gender\":\"female\",\"status\":\"inactive\"}]}\n\n"},{"result":{"nanos":37424,"startTime":1746187906480,"endTime":1746187906480,"millis":0.037424,"status":"passed"},"step":{"line":23,"prefix":"Then","index":4,"text":"status 200"}},{"result":{"nanos":1438461,"startTime":1746187906481,"endTime":1746187906482,"millis":1.438461,"status":"passed"},"step":{"line":24,"prefix":"*","index":5,"text":"print response"},"stepLog":"17:41:46.482 [print] {\n  \"meta\": {\n    \"pagination\": {\n      \"total\": 2934,\n      \"pages\": 294,\n      \"page\": 1,\n      \"limit\": 10,\n      \"links\": {\n        \"previous\": null,\n        \"current\": \"https:\/\/gorest.co.in\/public\/v1\/users?page=1\",\n        \"next\": \"https:\/\/gorest.co.in\/public\/v1\/users?page=2\"\n      }\n    }\n  },\n  \"data\": [\n    {\n      \"id\": 7868039,\n      \"name\": \"Mrs. Sarada Kaul\",\n      \"email\": \"mrs_sarada_kaul@donnelly-koss.test\",\n      \"gender\": \"male\",\n      \"status\": \"active\"\n    },\n    {\n      \"id\": 7868033,\n      \"name\": \"Ms. Anila Trivedi\",\n      \"email\": \"trivedi_anila_ms@brakus-harvey.example\",\n      \"gender\": \"female\",\n      \"status\": \"active\"\n    },\n    {\n      \"id\": 7868031,\n      \"name\": \"Mr. Vedanga Gandhi\",\n      \"email\": \"gandhi_mr_vedanga@rohan.test\",\n      \"gender\": \"female\",\n      \"status\": \"inactive\"\n    },\n    {\n      \"id\": 7868030,\n      \"name\": \"Indra Kakkar\",\n      \"email\": \"indra_kakkar@schinner-smitham.example\",\n      \"gender\": \"male\",\n      \"status\": \"inactive\"\n    },\n    {\n      \"id\": 7868029,\n      \"name\": \"Shubhaprada Trivedi\",\n      \"email\": \"shubhaprada_trivedi@kreiger-baumbach.test\",\n      \"gender\": \"female\",\n      \"status\": \"inactive\"\n    },\n    {\n      \"id\": 7868028,\n      \"name\": \"Gov. Gautama Varrier\",\n      \"email\": \"varrier_gov_gautama@cartwright-lynch.example\",\n      \"gender\": \"female\",\n      \"status\": \"inactive\"\n    },\n    {\n      \"id\": 7868027,\n      \"name\": \"Shreyashi Pillai\",\n      \"email\": \"shreyashi_pillai@schinner-hauck.example\",\n      \"gender\": \"female\",\n      \"status\": \"active\"\n    },\n    {\n      \"id\": 7868023,\n      \"name\": \"Amrit Iyengar IV\",\n      \"email\": \"iv_iyengar_amrit@borer.test\",\n      \"gender\": \"male\",\n      \"status\": \"inactive\"\n    },\n    {\n      \"id\": 7868022,\n      \"name\": \"Lavanya Ganaka\",\n      \"email\": \"ganaka_lavanya@friesen.test\",\n      \"gender\": \"female\",\n      \"status\": \"active\"\n    },\n    {\n      \"id\": 7868021,\n      \"name\": \"Amb. Baidehi Chaturvedi\",\n      \"email\": \"chaturvedi_amb_baidehi@dicki.test\",\n      \"gender\": \"female\",\n      \"status\": \"inactive\"\n    }\n  ]\n}\n \n"}],"executorName":"main","line":17,"name":"pass the user request with headers_Part2","description":"","durationMillis":795.671155,"startTime":1746187905683,"failed":false,"refId":"[2:17]","endTime":1746187906482,"exampleIndex":-1},{"sectionIndex":2,"stepResults":[{"result":{"nanos":799996,"startTime":1746187906497,"endTime":1746187906498,"millis":0.799996,"status":"passed"},"step":{"line":28,"prefix":"*","index":0,"text":"configure headers = {Content-Type: 'text\/xml;charset=ISO-8859-1', Connection: 'Keep-Alive', User-Agent: 'Mozilla\/4.0(compatible;IE;GACv7\\. 1\\. 5192\\. 22378)'}"}},{"result":{"nanos":376160,"startTime":1746187906498,"endTime":1746187906498,"millis":0.37616,"status":"passed"},"step":{"line":29,"prefix":"When","index":1,"text":"url baseUrl+'\/public\/v1\/users'"}},{"result":{"nanos":900767885,"startTime":1746187906498,"endTime":1746187907399,"millis":900.767885,"status":"passed"},"step":{"comments":["#And path '30'"],"line":31,"prefix":"When","index":2,"text":"method GET"},"stepLog":"17:41:46.502 request:\n1 > GET https:\/\/gorest.co.in\/public\/v1\/users\n1 > Content-Type: text\/xml;charset=ISO-8859-1\n1 > Connection: Keep-Alive\n1 > User-Agent: Mozilla\/4.0(compatible;IE;GACv7 1 5192 22378)\n1 > Host: gorest.co.in\n1 > Accept-Encoding: gzip,deflate\n\n\n17:41:47.397 response time in milliseconds: 893\n1 < 200\n1 < Date: Fri, 02 May 2025 12:11:47 GMT\n1 < Content-Type: application\/json; charset=utf-8\n1 < Transfer-Encoding: chunked\n1 < Connection: keep-alive\n1 < Cache-Control: max-age=0, private, must-revalidate\n1 < Etag: W\/\"f071a5dacb26ea86cb8ead088b07164b\"\n1 < Feature-Policy: camera 'none'; gyroscope 'none'; microphone 'none'; usb 'none'; fullscreen 'self'\n1 < Referrer-Policy: strict-origin-when-cross-origin\n1 < Vary: Origin\n1 < X-Content-Type-Options: nosniff\n1 < X-Download-Options: noopen\n1 < X-Frame-Options: SAMEORIGIN\n1 < X-Permitted-Cross-Domain-Policies: none\n1 < X-Request-Id: 2ec7cc29-22e4-41a8-8375-e2672e3e447e\n1 < X-Runtime: 0.131933\n1 < X-Xss-Protection: 0\n1 < Cf-Cache-Status: DYNAMIC\n1 < Server: cloudflare\n1 < CF-RAY: 93976c529dde9485-LHR\n1 < alt-svc: h3=\":443\"; ma=86400\n{\"meta\":{\"pagination\":{\"total\":2934,\"pages\":294,\"page\":1,\"limit\":10,\"links\":{\"previous\":null,\"current\":\"https:\/\/gorest.co.in\/public\/v1\/users?page=1\",\"next\":\"https:\/\/gorest.co.in\/public\/v1\/users?page=2\"}}},\"data\":[{\"id\":7868039,\"name\":\"Mrs. Sarada Kaul\",\"email\":\"mrs_sarada_kaul@donnelly-koss.test\",\"gender\":\"male\",\"status\":\"active\"},{\"id\":7868033,\"name\":\"Ms. Anila Trivedi\",\"email\":\"trivedi_anila_ms@brakus-harvey.example\",\"gender\":\"female\",\"status\":\"active\"},{\"id\":7868031,\"name\":\"Mr. Vedanga Gandhi\",\"email\":\"gandhi_mr_vedanga@rohan.test\",\"gender\":\"female\",\"status\":\"inactive\"},{\"id\":7868030,\"name\":\"Indra Kakkar\",\"email\":\"indra_kakkar@schinner-smitham.example\",\"gender\":\"male\",\"status\":\"inactive\"},{\"id\":7868029,\"name\":\"Shubhaprada Trivedi\",\"email\":\"shubhaprada_trivedi@kreiger-baumbach.test\",\"gender\":\"female\",\"status\":\"inactive\"},{\"id\":7868028,\"name\":\"Gov. Gautama Varrier\",\"email\":\"varrier_gov_gautama@cartwright-lynch.example\",\"gender\":\"female\",\"status\":\"inactive\"},{\"id\":7868027,\"name\":\"Shreyashi Pillai\",\"email\":\"shreyashi_pillai@schinner-hauck.example\",\"gender\":\"female\",\"status\":\"active\"},{\"id\":7868023,\"name\":\"Amrit Iyengar IV\",\"email\":\"iv_iyengar_amrit@borer.test\",\"gender\":\"male\",\"status\":\"inactive\"},{\"id\":7868022,\"name\":\"Lavanya Ganaka\",\"email\":\"ganaka_lavanya@friesen.test\",\"gender\":\"female\",\"status\":\"active\"},{\"id\":7868021,\"name\":\"Amb. Baidehi Chaturvedi\",\"email\":\"chaturvedi_amb_baidehi@dicki.test\",\"gender\":\"female\",\"status\":\"inactive\"}]}\n\n"},{"result":{"nanos":40474,"startTime":1746187907399,"endTime":1746187907399,"millis":0.040474,"status":"passed"},"step":{"line":32,"prefix":"Then","index":3,"text":"status 200"}},{"result":{"nanos":2412822,"startTime":1746187907399,"endTime":1746187907401,"millis":2.412822,"status":"passed"},"step":{"line":33,"prefix":"*","index":4,"text":"print response"},"stepLog":"17:41:47.401 [print] {\n  \"meta\": {\n    \"pagination\": {\n      \"total\": 2934,\n      \"pages\": 294,\n      \"page\": 1,\n      \"limit\": 10,\n      \"links\": {\n        \"previous\": null,\n        \"current\": \"https:\/\/gorest.co.in\/public\/v1\/users?page=1\",\n        \"next\": \"https:\/\/gorest.co.in\/public\/v1\/users?page=2\"\n      }\n    }\n  },\n  \"data\": [\n    {\n      \"id\": 7868039,\n      \"name\": \"Mrs. Sarada Kaul\",\n      \"email\": \"mrs_sarada_kaul@donnelly-koss.test\",\n      \"gender\": \"male\",\n      \"status\": \"active\"\n    },\n    {\n      \"id\": 7868033,\n      \"name\": \"Ms. Anila Trivedi\",\n      \"email\": \"trivedi_anila_ms@brakus-harvey.example\",\n      \"gender\": \"female\",\n      \"status\": \"active\"\n    },\n    {\n      \"id\": 7868031,\n      \"name\": \"Mr. Vedanga Gandhi\",\n      \"email\": \"gandhi_mr_vedanga@rohan.test\",\n      \"gender\": \"female\",\n      \"status\": \"inactive\"\n    },\n    {\n      \"id\": 7868030,\n      \"name\": \"Indra Kakkar\",\n      \"email\": \"indra_kakkar@schinner-smitham.example\",\n      \"gender\": \"male\",\n      \"status\": \"inactive\"\n    },\n    {\n      \"id\": 7868029,\n      \"name\": \"Shubhaprada Trivedi\",\n      \"email\": \"shubhaprada_trivedi@kreiger-baumbach.test\",\n      \"gender\": \"female\",\n      \"status\": \"inactive\"\n    },\n    {\n      \"id\": 7868028,\n      \"name\": \"Gov. Gautama Varrier\",\n      \"email\": \"varrier_gov_gautama@cartwright-lynch.example\",\n      \"gender\": \"female\",\n      \"status\": \"inactive\"\n    },\n    {\n      \"id\": 7868027,\n      \"name\": \"Shreyashi Pillai\",\n      \"email\": \"shreyashi_pillai@schinner-hauck.example\",\n      \"gender\": \"female\",\n      \"status\": \"active\"\n    },\n    {\n      \"id\": 7868023,\n      \"name\": \"Amrit Iyengar IV\",\n      \"email\": \"iv_iyengar_amrit@borer.test\",\n      \"gender\": \"male\",\n      \"status\": \"inactive\"\n    },\n    {\n      \"id\": 7868022,\n      \"name\": \"Lavanya Ganaka\",\n      \"email\": \"ganaka_lavanya@friesen.test\",\n      \"gender\": \"female\",\n      \"status\": \"active\"\n    },\n    {\n      \"id\": 7868021,\n      \"name\": \"Amb. Baidehi Chaturvedi\",\n      \"email\": \"chaturvedi_amb_baidehi@dicki.test\",\n      \"gender\": \"female\",\n      \"status\": \"inactive\"\n    }\n  ]\n}\n \n"}],"executorName":"main","line":27,"name":"pass the user request with headers_Part3","description":"","durationMillis":904.397337,"startTime":1746187906494,"failed":false,"refId":"[3:27]","endTime":1746187907402,"exampleIndex":-1}],"callDepth":0,"name":"GET API headers feature","description":"","resultDate":"2025-05-02 05:41:47 PM","durationMillis":2988.658869,"passedCount":3}